Generating a Raster Image from Quadkey-Identified Data • quadkeyr
…
If you are unsure whether your grid is complete, you can still run
the function, and it will return the same sf POLYGON
data.frame without any extra rows.

complete_polygon_grid <- add_regular_polygon_grid(data = data)

complete_polygon_grid
#> $data
#> Simple feature collection with 396 features and 9 fields
#> Geometry type: POLYGON
#> Dimension:     XY
#> Bounding box:  xmin: -58.60107 ymin: -34.60156 xmax: -58.5022 ymax: -34.50203
#> Geodetic CRS:  WGS 84
#> # A tibble: 396 × 10
#>    quadkey      X date_time n_crisis percent_change day         hour tileX tileY
#>  * <chr>    <dbl> <chr>        <dbl>          <dbl> <date>     <dbl> <dbl> <dbl>
#>  1 2103213…   150 2020-04-…     NA            2.29  2020-04-15    NA 22112 39481
#>  2 2103213…   149 2020-04-…    212.           0.848 2020-04-15    NA 22114 39472
#>  3 2103213…   148 2020-04-…     NA           28.4   2020-04-15    NA 22109 39488
#>  4 2103213…   147 2020-04-…    179.           3.75  2020-04-15    NA 22102 39467
#>  5 2103213…   146 2020-04-…     20.3          2.81  2020-04-15    NA 22106 39487
#>  6 2103213…   145 2020-04-…     NA          -12.8   2020-04-15    NA 22108 39468
#>  7 2103213…   144 2020-04-…    127.          -5.37  2020-04-15    NA 22108 39470
#>  8 2103213…   143 2020-04-…     NA            6.60  2020-04-15    NA 22116 39482
#>  9 2103213…   142 2020-04-…     NA            3.16  2020-04-15    NA 22116 39485
#> 10 2103213…   141 2020-04-…     NA           -2.84  2020-04-15    NA 22108 39480
#> # ℹ 386 more rows
#> # ℹ 1 more variable: geometry <POLYGON [°]>
…
2.1.2 Conversion to
polygons

As we are creating the polygons from a sf POINT
data.frame we can use grid_to_polygon().

polygrid <- grid_to_polygon(grid_coords)
polygrid
#> Simple feature collection with 360 features and 3 fields
#> Geometry type: POLYGON
#> Dimension:     XY
#> Bounding box:  xmin: -59.0625 ymin: -35.03 xmax: -56.95312 ymax: -33.94336
#> Geodetic CRS:  WGS 84
#> # A tibble: 360 × 4
#> # Rowwise: 
#>    tileX tileY quadkey                                                  geometry
#>  * <dbl> <dbl> <chr>                                               <POLYGON [°]>
#>  1  1399  2459 210321132133 ((-57.04102 -34.01624, -56.95312 -34.01624, -56.953…
#>  2  1398  2459 210321132132 ((-57.12891 -34.01624, -57.04102 -34.01624, -57.041…
#>  3  1397  2459 210321132123 ((-57.2168 -34.01624, -57.12891 -34.01624, -57.1289…
#>  4  1396  2459 210321132122 ((-57.30469 -34.01624, -57.2168 -34.01624, -57.2168…
#>  5  1395  2459 210321132033 ((-57.39258 -34.01624, -57.30469 -34.01624, -57.304…
#>  6  1394  2459 210321132032 ((-57.48047 -34.01624, -57.39258 -34.01624, -57.392…
#>  7  1393  2459 210321132023 ((-57.56836 -34.01624, -57.48047 -34.01624, -57.480…
#>  8  1392  2459 210321132022 ((-57.65625 -34.01624, -57.56836 -34.01624, -57.568…
#>  9  1391  2459 210321123133 ((-57.74414 -34.01624, -57.65625 -34.01624, -57.656…
#> 10  1390  2459 210321123132 ((-57.83203 -34.01624, -57.74414 -34.01624, -57.744…
#> # ℹ 350 more rows
…
