Apply a 7 day lag to the variable n_crisis — apply_weekly_lag • quadkeyr
…
apply_weekly_lag(data = files)
#> QuadKeys with 100% NAs for n_crisis: 305 (67.78% of total)
#> # A tibble: 435 × 10
#> # Groups:   quadkey [145]
#>      lat   lon quadkey    date_time           n_crisis percent_change day       
#>    <dbl> <dbl> <chr>      <dttm>                 <dbl>          <dbl> <date>    
#>  1 -34.5 -58.6 210321300… 2020-04-15 00:00:00    179.           3.75  2020-04-15
#>  2 -34.5 -58.6 210321300… 2020-04-15 08:00:00     NA            6.40  2020-04-15
#>  3 -34.5 -58.6 210321300… 2020-04-15 16:00:00    110.          -0.245 2020-04-15
#>  4 -34.5 -58.6 210321300… 2020-04-15 00:00:00     NA           -0.354 2020-04-15
#>  5 -34.5 -58.6 210321300… 2020-04-15 08:00:00    108.          -0.130 2020-04-15
#>  6 -34.5 -58.6 210321300… 2020-04-15 16:00:00     NA            3.62  2020-04-15
#>  7 -34.5 -58.6 210321300… 2020-04-15 00:00:00    601.         -12.4   2020-04-15
#>  8 -34.5 -58.6 210321300… 2020-04-15 08:00:00     55.7         -3.71  2020-04-15
#>  9 -34.5 -58.6 210321300… 2020-04-15 16:00:00     NA            1.89  2020-04-15
#> 10 -34.5 -58.6 210321300… 2020-04-15 00:00:00     13.1         -0.310 2020-04-15
#> # ℹ 425 more rows
#> # ℹ 3 more variables: hour <dbl>, n_crisis_lag_7 <dbl>, percent_change_7 <dbl>
…
