Converting Facebook Mobility QuadKey-identified Datasets into Raster Files • quadkeyr
…
files <- read_fb_mobility_files(path_to_csvs = paste0(system.file("extdata",
                                              package = "quadkeyr"), "/"),
                                colnames = c("lat", "lon", 
                                             "quadkey", "date_time", 
                                             "n_crisis", "percent_change"),
                                coltypes = list(
                                  lat = 'd',
                                  lon = 'd',
                                  quadkey = 'c',
                                  date_time = 'T',
                                  n_crisis = 'c',
                                  percent_change = 'c')) 

files
#> # A tibble: 450 × 8
#>      lat   lon quadkey    date_time           n_crisis percent_change day       
#>    <dbl> <dbl> <chr>      <dttm>                 <dbl>          <dbl> <date>    
#>  1 -34.6 -58.6 210321300… 2020-04-15 00:00:00     NA            2.86  2020-04-15
#>  2 -34.5 -58.6 210321300… 2020-04-15 00:00:00     NA           -2.60  2020-04-15
#>  3 -34.6 -58.6 210321300… 2020-04-15 00:00:00     NA            1.46  2020-04-15
#>  4 -34.5 -58.5 210321300… 2020-04-15 00:00:00     NA            2.61  2020-04-15
#>  5 -34.5 -58.5 210321300… 2020-04-15 00:00:00     NA            3.24  2020-04-15
#>  6 -34.5 -58.6 210321300… 2020-04-15 00:00:00     NA            1.17  2020-04-15
#>  7 -34.5 -58.6 210321300… 2020-04-15 00:00:00     13.1         -0.310 2020-04-15
#>  8 -34.6 -58.6 210321300… 2020-04-15 00:00:00     NA           11.4   2020-04-15
#>  9 -34.6 -58.5 210321300… 2020-04-15 00:00:00     NA          -18.3   2020-04-15
#> 10 -34.6 -58.6 210321300… 2020-04-15 00:00:00     NA          -15.7   2020-04-15
#> # ℹ 440 more rows
#> # ℹ 1 more variable: hour <dbl>
…
If creating the regular grid using the bounding box of the provided
QuadKeys may not work for your case, you can directly create the grid
for the full area of analysis using the create_qk_grid()
function. Read the the
previous vignette to learn more about this function.

regular_grid <- get_regular_polygon_grid(data = files)
regular_grid$data
#> Simple feature collection with 396 features and 3 fields
#> Geometry type: POLYGON
#> Dimension:     XY
#> Bounding box:  xmin: -58.60107 ymin: -34.60156 xmax: -58.5022 ymax: -34.50203
#> Geodetic CRS:  WGS 84
#> # A tibble: 396 × 4
#> # Rowwise: 
#>    quadkey                                                  geometry tileX tileY
#>  * <chr>                                               <POLYGON [°]> <dbl> <dbl>
#>  1 2103213001233302 ((-58.55713 -34.588, -58.55164 -34.588, -58.551… 22108 39485
#>  2 2103213001213202 ((-58.5791 -34.51561, -58.57361 -34.51561, -58.… 22104 39469
#>  3 2103213001233221 ((-58.57361 -34.59252, -58.56812 -34.59252, -58… 22105 39486
#>  4 2103213001231110 ((-58.54614 -34.52919, -58.54065 -34.52919, -58… 22110 39472
#>  5 2103213001320003 ((-58.52966 -34.53371, -58.52417 -34.53371, -58… 22113 39473
#>  6 2103213001230110 ((-58.59009 -34.52919, -58.58459 -34.52919, -58… 22102 39472
#>  7 2103213001212321 ((-58.59558 -34.52014, -58.59009 -34.52014, -58… 22101 39470
#>  8 2103213001232302 ((-58.60107 -34.588, -58.59558 -34.588, -58.595… 22100 39485
#>  9 2103213001322012 ((-58.52417 -34.56991, -58.51868 -34.56991, -58… 22114 39481
#> 10 2103213001230320 ((-58.60107 -34.55634, -58.59558 -34.55634, -58… 22100 39478
#> # ℹ 386 more rows
…
And later, we merge it with the files dataset. We’ve
chosen to use an dplyr::inner_join() as it is the fastest
join method (cite) and will retain only the polygons reported in the
files.

files_polygons <- files |> 
                  dplyr::inner_join(regular_grid$data, 
                          by = c("quadkey"))

files_polygons
#> # A tibble: 450 × 11
#>      lat   lon quadkey    date_time           n_crisis percent_change day       
#>    <dbl> <dbl> <chr>      <dttm>                 <dbl>          <dbl> <date>    
#>  1 -34.6 -58.6 210321300… 2020-04-15 00:00:00     NA            2.86  2020-04-15
#>  2 -34.5 -58.6 210321300… 2020-04-15 00:00:00     NA           -2.60  2020-04-15
#>  3 -34.6 -58.6 210321300… 2020-04-15 00:00:00     NA            1.46  2020-04-15
#>  4 -34.5 -58.5 210321300… 2020-04-15 00:00:00     NA            2.61  2020-04-15
#>  5 -34.5 -58.5 210321300… 2020-04-15 00:00:00     NA            3.24  2020-04-15
#>  6 -34.5 -58.6 210321300… 2020-04-15 00:00:00     NA            1.17  2020-04-15
#>  7 -34.5 -58.6 210321300… 2020-04-15 00:00:00     13.1         -0.310 2020-04-15
#>  8 -34.6 -58.6 210321300… 2020-04-15 00:00:00     NA           11.4   2020-04-15
#>  9 -34.6 -58.5 210321300… 2020-04-15 00:00:00     NA          -18.3   2020-04-15
#> 10 -34.6 -58.6 210321300… 2020-04-15 00:00:00     NA          -15.7   2020-04-15
#> # ℹ 440 more rows
#> # ℹ 4 more variables: hour <dbl>, geometry <POLYGON [°]>, tileX <dbl>,
#> #   tileY <dbl>
…
Advanced use

We will work with the output of the
read_fb_mobility_files function, the same that we have
already used in the basic workflow.

files
#> # A tibble: 450 × 8
#>      lat   lon quadkey    date_time           n_crisis percent_change day       
#>    <dbl> <dbl> <chr>      <dttm>                 <dbl>          <dbl> <date>    
#>  1 -34.6 -58.6 210321300… 2020-04-15 00:00:00     NA            2.86  2020-04-15
#>  2 -34.5 -58.6 210321300… 2020-04-15 00:00:00     NA           -2.60  2020-04-15
#>  3 -34.6 -58.6 210321300… 2020-04-15 00:00:00     NA            1.46  2020-04-15
#>  4 -34.5 -58.5 210321300… 2020-04-15 00:00:00     NA            2.61  2020-04-15
#>  5 -34.5 -58.5 210321300… 2020-04-15 00:00:00     NA            3.24  2020-04-15
#>  6 -34.5 -58.6 210321300… 2020-04-15 00:00:00     NA            1.17  2020-04-15
#>  7 -34.5 -58.6 210321300… 2020-04-15 00:00:00     13.1         -0.310 2020-04-15
#>  8 -34.6 -58.6 210321300… 2020-04-15 00:00:00     NA           11.4   2020-04-15
#>  9 -34.6 -58.5 210321300… 2020-04-15 00:00:00     NA          -18.3   2020-04-15
#> 10 -34.6 -58.6 210321300… 2020-04-15 00:00:00     NA          -15.7   2020-04-15
#> # ℹ 440 more rows
#> # ℹ 1 more variable: hour <dbl>
…
Create the polygons

S

# Now we can transform the quadkeys into polygons
polygrid <- grid_to_polygon(regular_grid$data)
polygrid
#> Simple feature collection with 396 features and 3 fields
#> Geometry type: POLYGON
#> Dimension:     XY
#> Bounding box:  xmin: -58.60107 ymin: -34.60156 xmax: -58.5022 ymax: -34.50203
#> Geodetic CRS:  WGS 84
#> # A tibble: 396 × 4
#> # Rowwise: 
#>    quadkey                                                  geometry tileX tileY
#>  * <chr>                                               <POLYGON [°]> <dbl> <dbl>
#>  1 2103213001233302 ((-58.55713 -34.588, -58.55164 -34.588, -58.551… 22108 39485
#>  2 2103213001213202 ((-58.5791 -34.51561, -58.57361 -34.51561, -58.… 22104 39469
#>  3 2103213001233221 ((-58.57361 -34.59252, -58.56812 -34.59252, -58… 22105 39486
#>  4 2103213001231110 ((-58.54614 -34.52919, -58.54065 -34.52919, -58… 22110 39472
#>  5 2103213001320003 ((-58.52966 -34.53371, -58.52417 -34.53371, -58… 22113 39473
#>  6 2103213001230110 ((-58.59009 -34.52919, -58.58459 -34.52919, -58… 22102 39472
#>  7 2103213001212321 ((-58.59558 -34.52014, -58.59009 -34.52014, -58… 22101 39470
#>  8 2103213001232302 ((-58.60107 -34.588, -58.59558 -34.588, -58.595… 22100 39485
#>  9 2103213001322012 ((-58.52417 -34.56991, -58.51868 -34.56991, -58… 22114 39481
#> 10 2103213001230320 ((-58.60107 -34.55634, -58.59558 -34.55634, -58… 22100 39478
#> # ℹ 386 more rows
…
